0:0:0:0:0:0:0:1 - - [10/Dec/2018:00:01:37 +0900] "GET /BootstrapBasic/BS4.html HTTP/1.1" 200 226
0:0:0:0:0:0:0:1 - - [10/Dec/2018:00:03:03 +0900] "GET /BootstrapBasic/BS4.html HTTP/1.1" 200 1032
0:0:0:0:0:0:0:1 - - [10/Dec/2018:00:03:19 +0900] "GET /BootstrapBasic/BS3.html HTTP/1.1" 304 -
0:0:0:0:0:0:0:1 - - [10/Dec/2018:00:04:18 +0900] "GET /BootstrapBasic/BS3.html HTTP/1.1" 200 835
0:0:0:0:0:0:0:1 - - [10/Dec/2018:00:15:10 +0900] "GET /BootstrapBasic/BS4.html HTTP/1.1" 200 616
0:0:0:0:0:0:0:1 - - [10/Dec/2018:00:15:11 +0900] "GET /BootstrapBasic/BS3.html HTTP/1.1" 200 611
0:0:0:0:0:0:0:1 - - [10/Dec/2018:00:16:40 +0900] "GET /BootstrapBasic/BS3.html HTTP/1.1" 200 623
0:0:0:0:0:0:0:1 - - [10/Dec/2018:00:16:41 +0900] "GET /BootstrapBasic/BS4.html HTTP/1.1" 304 -
0:0:0:0:0:0:0:1 - - [10/Dec/2018:00:16:42 +0900] "GET /BootstrapBasic/BS3.html HTTP/1.1" 304 -
0:0:0:0:0:0:0:1 - - [10/Dec/2018:00:18:00 +0900] "GET /BootstrapBasic/BS4.html HTTP/1.1" 200 658
0:0:0:0:0:0:0:1 - - [10/Dec/2018:00:18:28 +0900] "GET /BootstrapBasic/BS4.html HTTP/1.1" 200 676
0:0:0:0:0:0:0:1 - - [10/Dec/2018:00:19:24 +0900] "GET /BootstrapBasic/BS3.html HTTP/1.1" 200 623
0:0:0:0:0:0:0:1 - - [10/Dec/2018:00:20:23 +0900] "GET /BootstrapBasic/BS4.html HTTP/1.1" 200 781
0:0:0:0:0:0:0:1 - - [10/Dec/2018:00:21:13 +0900] "GET /BootstrapBasic/BS3.html HTTP/1.1" 200 816
0:0:0:0:0:0:0:1 - - [10/Dec/2018:00:21:17 +0900] "GET /BootstrapBasic/BS3.html HTTP/1.1" 304 -
0:0:0:0:0:0:0:1 - - [10/Dec/2018:00:21:26 +0900] "GET /BootstrapBasic/BS3.html HTTP/1.1" 200 786
0:0:0:0:0:0:0:1 - - [10/Dec/2018:00:34:46 +0900] "GET /Grid/BS4.html HTTP/1.1" 404 1091
127.0.0.1 - - [10/Dec/2018:00:35:00 +0900] "GET / HTTP/1.1" 404 1074
0:0:0:0:0:0:0:1 - - [10/Dec/2018:00:35:00 +0900] "GET /Grid/BS4.html HTTP/1.1" 200 670
0:0:0:0:0:0:0:1 - - [10/Dec/2018:00:35:32 +0900] "GET /Grid/BS4.html HTTP/1.1" 200 706
0:0:0:0:0:0:0:1 - - [10/Dec/2018:00:35:39 +0900] "GET /Grid/BS4.html HTTP/1.1" 304 -
0:0:0:0:0:0:0:1 - - [10/Dec/2018:00:36:05 +0900] "GET /Grid/BS4.html HTTP/1.1" 200 670
0:0:0:0:0:0:0:1 - - [10/Dec/2018:00:36:23 +0900] "GET /Grid/BS4.html HTTP/1.1" 200 706
0:0:0:0:0:0:0:1 - - [10/Dec/2018:00:37:21 +0900] "GET /Grid/BS4.html HTTP/1.1" 200 710
0:0:0:0:0:0:0:1 - - [10/Dec/2018:00:38:17 +0900] "GET /Grid/BS4.html HTTP/1.1" 200 769
0:0:0:0:0:0:0:1 - - [10/Dec/2018:00:38:31 +0900] "GET /Grid/BS4.html HTTP/1.1" 304 -
0:0:0:0:0:0:0:1 - - [10/Dec/2018:00:38:56 +0900] "GET /Grid/BS3.html HTTP/1.1" 200 665
0:0:0:0:0:0:0:1 - - [10/Dec/2018:00:39:56 +0900] "GET /Grid/BS3.html HTTP/1.1" 200 657
0:0:0:0:0:0:0:1 - - [10/Dec/2018:00:40:44 +0900] "GET /Grid/BS3.html HTTP/1.1" 200 659
127.0.0.1 - - [10/Dec/2018:00:46:25 +0900] "GET / HTTP/1.1" 404 1074
0:0:0:0:0:0:0:1 - - [10/Dec/2018:00:46:25 +0900] "GET /Grid/BS3.html HTTP/1.1" 200 847
0:0:0:0:0:0:0:1 - - [10/Dec/2018:00:47:20 +0900] "GET /Grid/BS3.html HTTP/1.1" 200 824
0:0:0:0:0:0:0:1 - - [10/Dec/2018:00:48:15 +0900] "GET /Grid/BS4.html HTTP/1.1" 200 922
0:0:0:0:0:0:0:1 - - [10/Dec/2018:00:51:13 +0900] "GET /Grid/BS4.html HTTP/1.1" 200 1111
0:0:0:0:0:0:0:1 - - [10/Dec/2018:00:51:48 +0900] "GET /Grid/BS4.html HTTP/1.1" 200 1282
0:0:0:0:0:0:0:1 - - [10/Dec/2018:00:52:25 +0900] "GET /Grid/BS4.html HTTP/1.1" 200 1453
0:0:0:0:0:0:0:1 - - [10/Dec/2018:00:53:08 +0900] "GET /Grid/BS3.html HTTP/1.1" 200 1356
0:0:0:0:0:0:0:1 - - [10/Dec/2018:00:54:17 +0900] "GET /Grid/BS4.html HTTP/1.1" 200 1629
0:0:0:0:0:0:0:1 - - [10/Dec/2018:00:55:37 +0900] "GET /Grid/BS4.html HTTP/1.1" 200 2032
127.0.0.1 - - [10/Dec/2018:01:01:46 +0900] "GET / HTTP/1.1" 404 1074
0:0:0:0:0:0:0:1 - - [10/Dec/2018:01:01:47 +0900] "GET /StringClass/BS4.html HTTP/1.1" 200 781
0:0:0:0:0:0:0:1 - - [10/Dec/2018:01:02:25 +0900] "GET /StringClass/BS4.html HTTP/1.1" 200 781
0:0:0:0:0:0:0:1 - - [10/Dec/2018:01:02:55 +0900] "GET /StringClass/BS3.html HTTP/1.1" 200 677
0:0:0:0:0:0:0:1 - - [10/Dec/2018:01:03:27 +0900] "GET /StringClass/BS3.html HTTP/1.1" 200 677
0:0:0:0:0:0:0:1 - - [10/Dec/2018:01:04:45 +0900] "GET /StringClass/BS4.html HTTP/1.1" 200 807
0:0:0:0:0:0:0:1 - - [10/Dec/2018:01:05:53 +0900] "GET /StringClass/BS4.html HTTP/1.1" 200 953
0:0:0:0:0:0:0:1 - - [10/Dec/2018:01:06:06 +0900] "GET /StringClass/BS4.html HTTP/1.1" 200 953
0:0:0:0:0:0:0:1 - - [10/Dec/2018:01:09:01 +0900] "GET /StringClass/BS4.html HTTP/1.1" 200 1162
0:0:0:0:0:0:0:1 - - [10/Dec/2018:01:09:32 +0900] "GET /StringClass/BS4.html HTTP/1.1" 200 1166
0:0:0:0:0:0:0:1 - - [10/Dec/2018:01:09:52 +0900] "GET /StringClass/BS4.html HTTP/1.1" 200 1164
0:0:0:0:0:0:0:1 - - [10/Dec/2018:01:09:57 +0900] "GET /StringClass/BS4.html HTTP/1.1" 304 -
0:0:0:0:0:0:0:1 - - [10/Dec/2018:01:09:59 +0900] "GET /StringClass/BS4.html HTTP/1.1" 200 1168
0:0:0:0:0:0:0:1 - - [10/Dec/2018:01:12:32 +0900] "GET /StringClass/BS4.html HTTP/1.1" 200 1281
0:0:0:0:0:0:0:1 - - [10/Dec/2018:01:12:45 +0900] "GET /StringClass/BS4.html HTTP/1.1" 304 -
0:0:0:0:0:0:0:1 - - [10/Dec/2018:01:12:53 +0900] "GET /StringClass/BS4.html HTTP/1.1" 304 -
0:0:0:0:0:0:0:1 - - [10/Dec/2018:01:13:36 +0900] "GET /StringClass/BS3.html HTTP/1.1" 200 743
0:0:0:0:0:0:0:1 - - [10/Dec/2018:01:14:14 +0900] "GET /StringClass/BS4.html HTTP/1.1" 200 1336
0:0:0:0:0:0:0:1 - - [10/Dec/2018:01:14:34 +0900] "GET /StringClass/BS3.html HTTP/1.1" 200 785
0:0:0:0:0:0:0:1 - - [10/Dec/2018:01:15:03 +0900] "GET /StringClass/BS3.html HTTP/1.1" 200 791
0:0:0:0:0:0:0:1 - - [10/Dec/2018:01:15:04 +0900] "GET /StringClass/BS4.html HTTP/1.1" 200 1342
0:0:0:0:0:0:0:1 - - [10/Dec/2018:01:16:29 +0900] "GET /StringClass/BS4.html HTTP/1.1" 200 1550
0:0:0:0:0:0:0:1 - - [10/Dec/2018:01:16:51 +0900] "GET /StringClass/BS4.html HTTP/1.1" 200 1550
0:0:0:0:0:0:0:1 - - [10/Dec/2018:01:16:57 +0900] "GET /StringClass/BS3.html HTTP/1.1" 304 -
0:0:0:0:0:0:0:1 - - [10/Dec/2018:01:18:01 +0900] "GET /StringClass/BS3.html HTTP/1.1" 200 958
0:0:0:0:0:0:0:1 - - [10/Dec/2018:01:19:31 +0900] "GET /StringClass/BS4.html HTTP/1.1" 200 1645
0:0:0:0:0:0:0:1 - - [10/Dec/2018:01:19:57 +0900] "GET /StringClass/BS4.html HTTP/1.1" 200 1646
0:0:0:0:0:0:0:1 - - [10/Dec/2018:01:20:17 +0900] "GET /StringClass/BS3.html HTTP/1.1" 200 1054
0:0:0:0:0:0:0:1 - - [10/Dec/2018:01:22:14 +0900] "GET /StringClass/BS4.html HTTP/1.1" 200 1822
0:0:0:0:0:0:0:1 - - [10/Dec/2018:01:22:49 +0900] "GET /StringClass/BS3.html HTTP/1.1" 200 1230
0:0:0:0:0:0:0:1 - - [10/Dec/2018:01:24:13 +0900] "GET /StringClass/BS3.html HTTP/1.1" 200 1370
0:0:0:0:0:0:0:1 - - [10/Dec/2018:01:24:40 +0900] "GET /StringClass/BS4.html HTTP/1.1" 200 1962
0:0:0:0:0:0:0:1 - - [10/Dec/2018:01:26:19 +0900] "GET /StringClass/BS4.html HTTP/1.1" 200 2048
0:0:0:0:0:0:0:1 - - [10/Dec/2018:01:26:36 +0900] "GET /StringClass/BS4.html HTTP/1.1" 200 2048
0:0:0:0:0:0:0:1 - - [10/Dec/2018:01:26:44 +0900] "GET /StringClass/BS3.html HTTP/1.1" 200 1456
0:0:0:0:0:0:0:1 - - [10/Dec/2018:01:27:54 +0900] "GET /StringClass/BS3.html HTTP/1.1" 200 1663
0:0:0:0:0:0:0:1 - - [10/Dec/2018:01:28:15 +0900] "GET /StringClass/BS4.html HTTP/1.1" 200 2251
0:0:0:0:0:0:0:1 - - [10/Dec/2018:01:28:47 +0900] "GET /StringClass/BS4.html HTTP/1.1" 200 2239
0:0:0:0:0:0:0:1 - - [10/Dec/2018:01:28:47 +0900] "GET /StringClass/BS4.html HTTP/1.1" 304 -
0:0:0:0:0:0:0:1 - - [10/Dec/2018:01:29:01 +0900] "GET /StringClass/BS3.html HTTP/1.1" 200 1647
0:0:0:0:0:0:0:1 - - [10/Dec/2018:01:31:47 +0900] "GET /StringClass/BS4.html HTTP/1.1" 200 2326
0:0:0:0:0:0:0:1 - - [10/Dec/2018:01:32:15 +0900] "GET /StringClass/BS4.html HTTP/1.1" 200 2379
0:0:0:0:0:0:0:1 - - [10/Dec/2018:01:32:50 +0900] "GET /StringClass/BS4.html HTTP/1.1" 200 2438
0:0:0:0:0:0:0:1 - - [10/Dec/2018:01:33:16 +0900] "GET /StringClass/BS4.html HTTP/1.1" 200 2497
0:0:0:0:0:0:0:1 - - [10/Dec/2018:01:37:54 +0900] "GET /StringClass/BS4.html HTTP/1.1" 200 2631
0:0:0:0:0:0:0:1 - - [10/Dec/2018:01:38:22 +0900] "GET /StringClass/BS3.html HTTP/1.1" 200 1819
0:0:0:0:0:0:0:1 - - [10/Dec/2018:01:40:32 +0900] "GET /StringClass/BS4.html HTTP/1.1" 200 2834
0:0:0:0:0:0:0:1 - - [10/Dec/2018:01:48:34 +0900] "GET /StringClass/BS4.html HTTP/1.1" 200 3113
0:0:0:0:0:0:0:1 - - [10/Dec/2018:01:48:59 +0900] "GET /StringClass/BS4.html HTTP/1.1" 200 3118
0:0:0:0:0:0:0:1 - - [10/Dec/2018:01:50:05 +0900] "GET /StringClass/BS4.html HTTP/1.1" 200 3143
0:0:0:0:0:0:0:1 - - [10/Dec/2018:01:50:24 +0900] "GET /StringClass/BS3.html HTTP/1.1" 200 2122
0:0:0:0:0:0:0:1 - - [10/Dec/2018:01:51:11 +0900] "GET /StringClass/BS4.html HTTP/1.1" 200 3292
0:0:0:0:0:0:0:1 - - [10/Dec/2018:01:51:37 +0900] "GET /StringClass/BS3.html HTTP/1.1" 200 2267
0:0:0:0:0:0:0:1 - - [10/Dec/2018:01:53:08 +0900] "GET /StringClass/BS4.html HTTP/1.1" 200 3372
0:0:0:0:0:0:0:1 - - [10/Dec/2018:01:55:36 +0900] "GET /StringClass/BS4.html HTTP/1.1" 200 3489
0:0:0:0:0:0:0:1 - - [10/Dec/2018:01:56:47 +0900] "GET /StringClass/BS3.html HTTP/1.1" 200 2401
0:0:0:0:0:0:0:1 - - [10/Dec/2018:01:57:30 +0900] "GET /StringClass/BS3.html HTTP/1.1" 200 2625
0:0:0:0:0:0:0:1 - - [10/Dec/2018:01:57:50 +0900] "GET /StringClass/BS4.html HTTP/1.1" 200 3713
0:0:0:0:0:0:0:1 - - [10/Dec/2018:01:58:46 +0900] "GET /StringClass/BS4.html HTTP/1.1" 200 3810
0:0:0:0:0:0:0:1 - - [10/Dec/2018:01:59:34 +0900] "GET /StringClass/BS4.html HTTP/1.1" 200 3916
0:0:0:0:0:0:0:1 - - [10/Dec/2018:02:00:01 +0900] "GET /StringClass/BS3.html HTTP/1.1" 200 2824
0:0:0:0:0:0:0:1 - - [10/Dec/2018:02:00:26 +0900] "GET /StringClass/BS3.html HTTP/1.1" 200 2928
0:0:0:0:0:0:0:1 - - [10/Dec/2018:02:00:49 +0900] "GET /StringClass/BS4.html HTTP/1.1" 200 4016
0:0:0:0:0:0:0:1 - - [10/Dec/2018:02:01:44 +0900] "GET /StringClass/BS4.html HTTP/1.1" 200 4041
0:0:0:0:0:0:0:1 - - [10/Dec/2018:02:02:01 +0900] "GET /StringClass/BS4.html HTTP/1.1" 200 4066
0:0:0:0:0:0:0:1 - - [10/Dec/2018:02:02:13 +0900] "GET /StringClass/BS4.html HTTP/1.1" 200 4091
0:0:0:0:0:0:0:1 - - [10/Dec/2018:02:03:15 +0900] "GET /StringClass/BS3.html HTTP/1.1" 200 3139
0:0:0:0:0:0:0:1 - - [10/Dec/2018:02:04:44 +0900] "GET /StringClass/BS4.html HTTP/1.1" 200 4318
0:0:0:0:0:0:0:1 - - [10/Dec/2018:02:05:03 +0900] "GET /StringClass/BS4.html HTTP/1.1" 200 4318
0:0:0:0:0:0:0:1 - - [10/Dec/2018:02:05:18 +0900] "GET /StringClass/BS4.html HTTP/1.1" 200 4317
0:0:0:0:0:0:0:1 - - [10/Dec/2018:02:05:37 +0900] "GET /StringClass/BS4.html HTTP/1.1" 200 4494
0:0:0:0:0:0:0:1 - - [10/Dec/2018:02:06:58 +0900] "GET /StringClass/BS4.html HTTP/1.1" 200 4297
0:0:0:0:0:0:0:1 - - [10/Dec/2018:02:07:05 +0900] "GET /StringClass/BS4.html HTTP/1.1" 200 4318
0:0:0:0:0:0:0:1 - - [10/Dec/2018:02:07:31 +0900] "GET /StringClass/BS4.html HTTP/1.1" 200 4341
0:0:0:0:0:0:0:1 - - [10/Dec/2018:02:08:22 +0900] "GET /StringClass/BS3.html HTTP/1.1" 200 3378
127.0.0.1 - - [10/Dec/2018:02:15:34 +0900] "GET / HTTP/1.1" 404 1074
0:0:0:0:0:0:0:1 - - [10/Dec/2018:02:15:34 +0900] "GET /Color/BS4.html HTTP/1.1" 200 1095
0:0:0:0:0:0:0:1 - - [10/Dec/2018:02:16:00 +0900] "GET /Color/BS4.html HTTP/1.1" 200 1119
0:0:0:0:0:0:0:1 - - [10/Dec/2018:02:17:12 +0900] "GET /Color/BS4.html HTTP/1.1" 200 1183
0:0:0:0:0:0:0:1 - - [10/Dec/2018:02:17:52 +0900] "GET /Color/BS3.html HTTP/1.1" 200 513
0:0:0:0:0:0:0:1 - - [10/Dec/2018:02:18:50 +0900] "GET /Color/BS3.html HTTP/1.1" 200 1075
0:0:0:0:0:0:0:1 - - [10/Dec/2018:02:19:28 +0900] "GET /Color/BS3.html HTTP/1.1" 200 801
0:0:0:0:0:0:0:1 - - [10/Dec/2018:02:22:47 +0900] "GET /Color/BS4.html HTTP/1.1" 200 1708
0:0:0:0:0:0:0:1 - - [10/Dec/2018:02:24:13 +0900] "GET /Color/BS4.html HTTP/1.1" 200 1705
0:0:0:0:0:0:0:1 - - [10/Dec/2018:02:24:24 +0900] "GET /Color/BS4.html HTTP/1.1" 200 1653
0:0:0:0:0:0:0:1 - - [10/Dec/2018:02:26:15 +0900] "GET /Color/BS4.html HTTP/1.1" 200 1747
0:0:0:0:0:0:0:1 - - [10/Dec/2018:02:26:34 +0900] "GET /Color/BS4.html HTTP/1.1" 200 1747
0:0:0:0:0:0:0:1 - - [10/Dec/2018:02:26:36 +0900] "GET /Color/BS4.html HTTP/1.1" 304 -
0:0:0:0:0:0:0:1 - - [10/Dec/2018:02:26:36 +0900] "GET /Color/BS4.html HTTP/1.1" 304 -
0:0:0:0:0:0:0:1 - - [10/Dec/2018:02:26:36 +0900] "GET /Color/BS4.html HTTP/1.1" 304 -
0:0:0:0:0:0:0:1 - - [10/Dec/2018:02:26:37 +0900] "GET /Color/BS4.html HTTP/1.1" 304 -
0:0:0:0:0:0:0:1 - - [10/Dec/2018:02:26:37 +0900] "GET /Color/BS4.html HTTP/1.1" 304 -
0:0:0:0:0:0:0:1 - - [10/Dec/2018:02:26:37 +0900] "GET /Color/BS4.html HTTP/1.1" 304 -
0:0:0:0:0:0:0:1 - - [10/Dec/2018:02:26:37 +0900] "GET /Color/BS4.html HTTP/1.1" 304 -
0:0:0:0:0:0:0:1 - - [10/Dec/2018:02:26:43 +0900] "GET /Color/BS4.html HTTP/1.1" 200 1747
0:0:0:0:0:0:0:1 - - [10/Dec/2018:02:26:44 +0900] "GET /Color/BS4.html HTTP/1.1" 304 -
0:0:0:0:0:0:0:1 - - [10/Dec/2018:02:26:44 +0900] "GET /Color/BS4.html HTTP/1.1" 304 -
0:0:0:0:0:0:0:1 - - [10/Dec/2018:02:26:48 +0900] "GET /Color/BS4.html HTTP/1.1" 304 -
0:0:0:0:0:0:0:1 - - [10/Dec/2018:02:26:49 +0900] "GET /Color/BS4.html HTTP/1.1" 304 -
0:0:0:0:0:0:0:1 - - [10/Dec/2018:02:26:49 +0900] "GET /Color/BS4.html HTTP/1.1" 304 -
0:0:0:0:0:0:0:1 - - [10/Dec/2018:02:26:49 +0900] "GET /Color/BS4.html HTTP/1.1" 304 -
0:0:0:0:0:0:0:1 - - [10/Dec/2018:02:26:50 +0900] "GET /Color/BS4.html HTTP/1.1" 304 -
0:0:0:0:0:0:0:1 - - [10/Dec/2018:02:26:50 +0900] "GET /Color/BS4.html HTTP/1.1" 304 -
0:0:0:0:0:0:0:1 - - [10/Dec/2018:02:28:02 +0900] "GET /Color/BS4.html HTTP/1.1" 200 1742
127.0.0.1 - - [10/Dec/2018:10:28:42 +0900] "GET / HTTP/1.1" 404 1074
0:0:0:0:0:0:0:1 - - [10/Dec/2018:10:28:43 +0900] "GET /Table/BS4.html HTTP/1.1" 200 1091
0:0:0:0:0:0:0:1 - - [10/Dec/2018:10:29:05 +0900] "GET /Table/BS3.html HTTP/1.1" 200 987
0:0:0:0:0:0:0:1 - - [10/Dec/2018:10:29:32 +0900] "GET /Table/BS4.html HTTP/1.1" 200 1600
0:0:0:0:0:0:0:1 - - [10/Dec/2018:10:30:04 +0900] "GET /Table/BS3.html HTTP/1.1" 200 1492
0:0:0:0:0:0:0:1 - - [10/Dec/2018:10:30:48 +0900] "GET /Table/BS4.html HTTP/1.1" 200 2123
0:0:0:0:0:0:0:1 - - [10/Dec/2018:10:31:03 +0900] "GET /Table/BS3.html HTTP/1.1" 200 2019
0:0:0:0:0:0:0:1 - - [10/Dec/2018:10:31:35 +0900] "GET /Table/BS4.html HTTP/1.1" 200 2639
0:0:0:0:0:0:0:1 - - [10/Dec/2018:10:31:58 +0900] "GET /Table/BS3.html HTTP/1.1" 200 2535
0:0:0:0:0:0:0:1 - - [10/Dec/2018:10:32:27 +0900] "GET /Table/BS4.html HTTP/1.1" 200 3156
0:0:0:0:0:0:0:1 - - [10/Dec/2018:10:32:41 +0900] "GET /Table/BS3.html HTTP/1.1" 200 3052
0:0:0:0:0:0:0:1 - - [10/Dec/2018:10:33:11 +0900] "GET /Table/BS4.html HTTP/1.1" 200 3672
0:0:0:0:0:0:0:1 - - [10/Dec/2018:10:33:27 +0900] "GET /Table/BS4.html HTTP/1.1" 304 -
0:0:0:0:0:0:0:1 - - [10/Dec/2018:10:33:28 +0900] "GET /Table/BS4.html HTTP/1.1" 304 -
0:0:0:0:0:0:0:1 - - [10/Dec/2018:10:33:29 +0900] "GET /Table/BS4.html HTTP/1.1" 304 -
0:0:0:0:0:0:0:1 - - [10/Dec/2018:10:33:51 +0900] "GET /Table/BS4.html HTTP/1.1" 200 3686
0:0:0:0:0:0:0:1 - - [10/Dec/2018:10:33:53 +0900] "GET /Table/BS4.html HTTP/1.1" 304 -
0:0:0:0:0:0:0:1 - - [10/Dec/2018:10:33:55 +0900] "GET /Table/BS3.html HTTP/1.1" 304 -
0:0:0:0:0:0:0:1 - - [10/Dec/2018:10:34:18 +0900] "GET /Table/BS4.html HTTP/1.1" 200 4202
0:0:0:0:0:0:0:1 - - [10/Dec/2018:10:34:46 +0900] "GET /Table/BS4.html HTTP/1.1" 200 4206
0:0:0:0:0:0:0:1 - - [10/Dec/2018:10:35:12 +0900] "GET /Table/BS4.html HTTP/1.1" 200 4725
0:0:0:0:0:0:0:1 - - [10/Dec/2018:10:35:51 +0900] "GET /Table/BS4.html HTTP/1.1" 200 5238
0:0:0:0:0:0:0:1 - - [10/Dec/2018:10:36:21 +0900] "GET /Table/BS4.html HTTP/1.1" 200 5743
0:0:0:0:0:0:0:1 - - [10/Dec/2018:10:36:35 +0900] "GET /Table/BS3.html HTTP/1.1" 200 3561
0:0:0:0:0:0:0:1 - - [10/Dec/2018:10:37:18 +0900] "GET /Table/BS3.html HTTP/1.1" 200 3568
0:0:0:0:0:0:0:1 - - [10/Dec/2018:10:41:11 +0900] "GET /Table/BS4.html HTTP/1.1" 200 5751
0:0:0:0:0:0:0:1 - - [10/Dec/2018:10:42:00 +0900] "GET /Table/BS4.html HTTP/1.1" 200 5783
0:0:0:0:0:0:0:1 - - [10/Dec/2018:10:44:24 +0900] "GET /Table/BS4.html HTTP/1.1" 200 6493
0:0:0:0:0:0:0:1 - - [10/Dec/2018:10:44:58 +0900] "GET /Table/BS4.html HTTP/1.1" 200 6490
0:0:0:0:0:0:0:1 - - [10/Dec/2018:10:45:33 +0900] "GET /Table/BS3.html HTTP/1.1" 200 4799
0:0:0:0:0:0:0:1 - - [10/Dec/2018:10:46:29 +0900] "GET /Table/BS3.html HTTP/1.1" 200 4385
0:0:0:0:0:0:0:1 - - [10/Dec/2018:10:47:33 +0900] "GET /Table/BS3.html HTTP/1.1" 200 4490
0:0:0:0:0:0:0:1 - - [10/Dec/2018:10:50:01 +0900] "GET /Table/BS4.html HTTP/1.1" 200 7008
0:0:0:0:0:0:0:1 - - [10/Dec/2018:10:51:27 +0900] "GET /Table/BS4.html HTTP/1.1" 200 7532
0:0:0:0:0:0:0:1 - - [10/Dec/2018:10:51:43 +0900] "GET /Table/BS4.html HTTP/1.1" 200 8045
0:0:0:0:0:0:0:1 - - [10/Dec/2018:10:56:22 +0900] "GET /Table/BS4.html HTTP/1.1" 200 8868
0:0:0:0:0:0:0:1 - - [10/Dec/2018:10:57:40 +0900] "GET /Table/BS4.html HTTP/1.1" 200 8912
0:0:0:0:0:0:0:1 - - [10/Dec/2018:10:58:16 +0900] "GET /Table/BS4.html HTTP/1.1" 200 8914
0:0:0:0:0:0:0:1 - - [10/Dec/2018:10:58:29 +0900] "GET /Table/BS4.html HTTP/1.1" 200 8916
0:0:0:0:0:0:0:1 - - [10/Dec/2018:10:58:53 +0900] "GET /Table/BS4.html HTTP/1.1" 200 8926
0:0:0:0:0:0:0:1 - - [10/Dec/2018:10:59:02 +0900] "GET /Table/BS4.html HTTP/1.1" 304 -
0:0:0:0:0:0:0:1 - - [10/Dec/2018:11:00:10 +0900] "GET /Table/BS3.html HTTP/1.1" 200 5369
0:0:0:0:0:0:0:1 - - [10/Dec/2018:11:03:22 +0900] "GET /Table/BS4.html HTTP/1.1" 200 14557
0:0:0:0:0:0:0:1 - - [10/Dec/2018:11:04:24 +0900] "GET /Table/BS4.html HTTP/1.1" 200 14615
0:0:0:0:0:0:0:1 - - [10/Dec/2018:11:04:30 +0900] "GET /Table/BS4.html HTTP/1.1" 304 -
0:0:0:0:0:0:0:1 - - [10/Dec/2018:11:04:45 +0900] "GET /Table/BS4.html HTTP/1.1" 304 -
0:0:0:0:0:0:0:1 - - [10/Dec/2018:11:06:19 +0900] "GET /Table/BS4.html HTTP/1.1" 200 12515
127.0.0.1 - - [10/Dec/2018:11:16:35 +0900] "GET / HTTP/1.1" 404 1074
0:0:0:0:0:0:0:1 - - [10/Dec/2018:11:16:36 +0900] "GET /Image/BS4.html HTTP/1.1" 200 728
0:0:0:0:0:0:0:1 - - [10/Dec/2018:11:16:36 +0900] "GET /Image/image/paris.jpg HTTP/1.1" 200 96656
0:0:0:0:0:0:0:1 - - [10/Dec/2018:11:16:36 +0900] "GET /Image/image/newyork.jpg HTTP/1.1" 200 622247
0:0:0:0:0:0:0:1 - - [10/Dec/2018:11:16:36 +0900] "GET /Image/image/sanfran.jpg HTTP/1.1" 200 985925
0:0:0:0:0:0:0:1 - - [10/Dec/2018:11:17:49 +0900] "GET /Image/BS4.html HTTP/1.1" 200 789
0:0:0:0:0:0:0:1 - - [10/Dec/2018:11:17:49 +0900] "GET /Image/image/newyork.jpg HTTP/1.1" 304 -
0:0:0:0:0:0:0:1 - - [10/Dec/2018:11:17:49 +0900] "GET /Image/image/paris.jpg HTTP/1.1" 304 -
0:0:0:0:0:0:0:1 - - [10/Dec/2018:11:17:49 +0900] "GET /Image/image/sanfran.jpg HTTP/1.1" 304 -
0:0:0:0:0:0:0:1 - - [10/Dec/2018:11:18:11 +0900] "GET /Image/BS4.html HTTP/1.1" 304 -
0:0:0:0:0:0:0:1 - - [10/Dec/2018:11:18:37 +0900] "GET /Image/BS4.html HTTP/1.1" 200 803
0:0:0:0:0:0:0:1 - - [10/Dec/2018:11:18:38 +0900] "GET /Image/image/newyork.jpg HTTP/1.1" 304 -
0:0:0:0:0:0:0:1 - - [10/Dec/2018:11:18:38 +0900] "GET /Image/image/paris.jpg HTTP/1.1" 304 -
0:0:0:0:0:0:0:1 - - [10/Dec/2018:11:18:38 +0900] "GET /Image/image/sanfran.jpg HTTP/1.1" 304 -
0:0:0:0:0:0:0:1 - - [10/Dec/2018:11:18:48 +0900] "GET /Image/BS4.html HTTP/1.1" 200 832
0:0:0:0:0:0:0:1 - - [10/Dec/2018:11:19:10 +0900] "GET /Image/BS4.html HTTP/1.1" 200 832
0:0:0:0:0:0:0:1 - - [10/Dec/2018:11:19:10 +0900] "GET /Image/image/paris.jpg HTTP/1.1" 304 -
0:0:0:0:0:0:0:1 - - [10/Dec/2018:11:19:10 +0900] "GET /Image/image/newyork.jpg HTTP/1.1" 304 -
0:0:0:0:0:0:0:1 - - [10/Dec/2018:11:19:10 +0900] "GET /Image/image/sanfran.jpg HTTP/1.1" 304 -
0:0:0:0:0:0:0:1 - - [10/Dec/2018:11:19:10 +0900] "GET /Image/BS4.html HTTP/1.1" 304 -
0:0:0:0:0:0:0:1 - - [10/Dec/2018:11:19:20 +0900] "GET /Image/BS4.html HTTP/1.1" 200 832
0:0:0:0:0:0:0:1 - - [10/Dec/2018:11:20:12 +0900] "GET /Image/BS3.html HTTP/1.1" 200 728
0:0:0:0:0:0:0:1 - - [10/Dec/2018:11:20:12 +0900] "GET /Image/image/paris.jpg HTTP/1.1" 304 -
0:0:0:0:0:0:0:1 - - [10/Dec/2018:11:20:12 +0900] "GET /Image/image/newyork.jpg HTTP/1.1" 304 -
0:0:0:0:0:0:0:1 - - [10/Dec/2018:11:20:12 +0900] "GET /Image/image/sanfran.jpg HTTP/1.1" 304 -
0:0:0:0:0:0:0:1 - - [10/Dec/2018:11:23:24 +0900] "GET /Image/BS4.html HTTP/1.1" 200 976
0:0:0:0:0:0:0:1 - - [10/Dec/2018:11:23:24 +0900] "GET /Image/image/paris.jpg HTTP/1.1" 304 -
0:0:0:0:0:0:0:1 - - [10/Dec/2018:11:23:24 +0900] "GET /Image/image/newyork.jpg HTTP/1.1" 304 -
0:0:0:0:0:0:0:1 - - [10/Dec/2018:11:23:24 +0900] "GET /Image/image/sanfran.jpg HTTP/1.1" 304 -
0:0:0:0:0:0:0:1 - - [10/Dec/2018:11:24:13 +0900] "GET /Image/BS4.html HTTP/1.1" 200 1040
0:0:0:0:0:0:0:1 - - [10/Dec/2018:11:25:24 +0900] "GET /Image/BS4.html HTTP/1.1" 200 1072
0:0:0:0:0:0:0:1 - - [10/Dec/2018:11:25:25 +0900] "GET /Image/image/paris.jpg HTTP/1.1" 304 -
0:0:0:0:0:0:0:1 - - [10/Dec/2018:11:25:25 +0900] "GET /Image/image/newyork.jpg HTTP/1.1" 304 -
0:0:0:0:0:0:0:1 - - [10/Dec/2018:11:25:25 +0900] "GET /Image/image/sanfran.jpg HTTP/1.1" 304 -
0:0:0:0:0:0:0:1 - - [10/Dec/2018:11:27:58 +0900] "GET /Image/BS4.html HTTP/1.1" 200 1225
0:0:0:0:0:0:0:1 - - [10/Dec/2018:11:27:58 +0900] "GET /Image/image/paris.jpg HTTP/1.1" 304 -
0:0:0:0:0:0:0:1 - - [10/Dec/2018:11:27:58 +0900] "GET /Image/image/newyork.jpg HTTP/1.1" 304 -
0:0:0:0:0:0:0:1 - - [10/Dec/2018:11:27:58 +0900] "GET /Image/image/sanfran.jpg HTTP/1.1" 304 -
0:0:0:0:0:0:0:1 - - [10/Dec/2018:11:30:52 +0900] "GET /Image/BS4.html HTTP/1.1" 200 1308
0:0:0:0:0:0:0:1 - - [10/Dec/2018:11:30:52 +0900] "GET /Image/image/paris.jpg HTTP/1.1" 304 -
0:0:0:0:0:0:0:1 - - [10/Dec/2018:11:30:52 +0900] "GET /Image/image/newyork.jpg HTTP/1.1" 304 -
0:0:0:0:0:0:0:1 - - [10/Dec/2018:11:30:52 +0900] "GET /Image/image/sanfran.jpg HTTP/1.1" 304 -
0:0:0:0:0:0:0:1 - - [10/Dec/2018:11:32:06 +0900] "GET /Image/BS3.html HTTP/1.1" 200 811
127.0.0.1 - - [10/Dec/2018:11:37:12 +0900] "GET / HTTP/1.1" 404 1074
0:0:0:0:0:0:0:1 - - [10/Dec/2018:11:37:13 +0900] "GET /Jumbotron/BS3.html HTTP/1.1" 200 599
0:0:0:0:0:0:0:1 - - [10/Dec/2018:11:37:28 +0900] "GET /Jumbotron/BS4.html HTTP/1.1" 200 707
0:0:0:0:0:0:0:1 - - [10/Dec/2018:11:38:03 +0900] "GET /Jumbotron/BS4.html HTTP/1.1" 200 718
0:0:0:0:0:0:0:1 - - [10/Dec/2018:11:38:17 +0900] "GET /Jumbotron/BS4.html HTTP/1.1" 200 718
0:0:0:0:0:0:0:1 - - [10/Dec/2018:11:39:42 +0900] "GET /Jumbotron/BS4.html HTTP/1.1" 200 842
0:0:0:0:0:0:0:1 - - [10/Dec/2018:11:40:15 +0900] "GET /Jumbotron/BS3.html HTTP/1.1" 200 738
0:0:0:0:0:0:0:1 - - [10/Dec/2018:11:40:56 +0900] "GET /Jumbotron/BS3.html HTTP/1.1" 200 759
0:0:0:0:0:0:0:1 - - [10/Dec/2018:11:40:57 +0900] "GET /Jumbotron/BS3.html HTTP/1.1" 304 -
0:0:0:0:0:0:0:1 - - [10/Dec/2018:11:40:57 +0900] "GET /Jumbotron/BS3.html HTTP/1.1" 304 -
0:0:0:0:0:0:0:1 - - [10/Dec/2018:11:40:58 +0900] "GET /Jumbotron/BS4.html HTTP/1.1" 304 -
0:0:0:0:0:0:0:1 - - [10/Dec/2018:11:40:58 +0900] "GET /Jumbotron/BS3.html HTTP/1.1" 304 -
0:0:0:0:0:0:0:1 - - [10/Dec/2018:11:40:59 +0900] "GET /Jumbotron/BS3.html HTTP/1.1" 304 -
0:0:0:0:0:0:0:1 - - [10/Dec/2018:11:40:59 +0900] "GET /Jumbotron/BS3.html HTTP/1.1" 304 -
0:0:0:0:0:0:0:1 - - [10/Dec/2018:11:41:14 +0900] "GET /Jumbotron/BS3.html HTTP/1.1" 200 758
0:0:0:0:0:0:0:1 - - [10/Dec/2018:11:41:14 +0900] "GET /Jumbotron/BS3.html HTTP/1.1" 304 -
0:0:0:0:0:0:0:1 - - [10/Dec/2018:11:41:15 +0900] "GET /Jumbotron/BS3.html HTTP/1.1" 304 -
0:0:0:0:0:0:0:1 - - [10/Dec/2018:11:41:15 +0900] "GET /Jumbotron/BS3.html HTTP/1.1" 304 -
0:0:0:0:0:0:0:1 - - [10/Dec/2018:11:41:17 +0900] "GET /Jumbotron/BS3.html HTTP/1.1" 304 -
0:0:0:0:0:0:0:1 - - [10/Dec/2018:11:41:45 +0900] "GET /Jumbotron/BS3.html HTTP/1.1" 304 -
0:0:0:0:0:0:0:1 - - [10/Dec/2018:11:41:47 +0900] "GET /Jumbotron/BS3.html HTTP/1.1" 304 -
0:0:0:0:0:0:0:1 - - [10/Dec/2018:11:41:47 +0900] "GET /Jumbotron/BS3.html HTTP/1.1" 304 -
0:0:0:0:0:0:0:1 - - [10/Dec/2018:11:41:47 +0900] "GET /Jumbotron/BS3.html HTTP/1.1" 304 -
0:0:0:0:0:0:0:1 - - [10/Dec/2018:11:41:47 +0900] "GET /Jumbotron/BS3.html HTTP/1.1" 304 -
0:0:0:0:0:0:0:1 - - [10/Dec/2018:11:42:24 +0900] "GET /Jumbotron/BS3.html HTTP/1.1" 200 758
0:0:0:0:0:0:0:1 - - [10/Dec/2018:11:42:29 +0900] "GET /Jumbotron/BS3.html HTTP/1.1" 304 -
0:0:0:0:0:0:0:1 - - [10/Dec/2018:11:42:29 +0900] "GET /Jumbotron/BS3.html HTTP/1.1" 200 757
0:0:0:0:0:0:0:1 - - [10/Dec/2018:11:42:30 +0900] "GET /Jumbotron/BS3.html HTTP/1.1" 304 -
0:0:0:0:0:0:0:1 - - [10/Dec/2018:11:42:30 +0900] "GET /Jumbotron/BS3.html HTTP/1.1" 304 -
0:0:0:0:0:0:0:1 - - [10/Dec/2018:11:42:32 +0900] "GET /Jumbotron/BS3.html HTTP/1.1" 304 -
0:0:0:0:0:0:0:1 - - [10/Dec/2018:11:42:53 +0900] "GET /Jumbotron/BS4.html HTTP/1.1" 304 -
0:0:0:0:0:0:0:1 - - [10/Dec/2018:11:43:17 +0900] "GET /Jumbotron/BS4.html HTTP/1.1" 200 858
0:0:0:0:0:0:0:1 - - [10/Dec/2018:11:43:32 +0900] "GET /Jumbotron/BS4.html HTTP/1.1" 304 -
0:0:0:0:0:0:0:1 - - [10/Dec/2018:11:43:57 +0900] "GET /Jumbotron/BS4.html HTTP/1.1" 200 858
127.0.0.1 - - [10/Dec/2018:11:46:32 +0900] "GET / HTTP/1.1" 404 1074
0:0:0:0:0:0:0:1 - - [10/Dec/2018:11:46:33 +0900] "GET /Well/BS3.html HTTP/1.1" 200 543
0:0:0:0:0:0:0:1 - - [10/Dec/2018:11:47:37 +0900] "GET /Well/BS3.html HTTP/1.1" 200 640
